tb/hdmi_git/waveform.vcd
$version Generated by VerilatedVcd $end
$timescale 1ps $end
 $scope module TOP $end
  $var wire 1 ' clk_pixel $end
  $var wire 8 ( video_data [7:0] $end
  $var wire 4 ) data_island_data [3:0] $end
  $var wire 2 * control_data [1:0] $end
  $var wire 3 + mode [2:0] $end
  $var wire 10 , tmds [9:0] $end
  $scope module tmds_channel $end
   $var wire 32 4 CN [31:0] $end
   $var wire 1 ' clk_pixel $end
   $var wire 8 ( video_data [7:0] $end
   $var wire 4 ) data_island_data [3:0] $end
   $var wire 2 * control_data [1:0] $end
   $var wire 3 + mode [2:0] $end
   $var wire 10 , tmds [9:0] $end
   $var wire 5 - acc [4:0] $end
   $var wire 9 . q_m [8:0] $end
   $var wire 10 / q_out [9:0] $end
   $var wire 10 / video_coding [9:0] $end
   $var wire 4 $ N1D [3:0] $end
   $var wire 5 0 N1q_m07 [4:0] $end
   $var wire 5 1 N0q_m07 [4:0] $end
   $var wire 5 2 acc_add [4:0] $end
   $var wire 32 # i [31:0] $end
   $var wire 10 % control_coding [9:0] $end
   $var wire 10 & terc4_coding [9:0] $end
   $var wire 10 5 video_guard_band [9:0] $end
   $var wire 10 3 data_guard_band [9:0] $end
  $upscope $end
 $upscope $end
$enddefinitions $end


#0
b00000000000000000000000000000111 #
b1000 $
b1010101011 %
b1010011100 &
1'
b11111111 (
b0000 )
b11 *
b001 +
b1101010100 ,
b00000 -
b011111111 .
b1000000000 /
b01000 0
b00000 1
b11000 2
b1011000011 3
b00000000000000000000000000000000 4
b1011001100 5
#1
0'
#2
1'
b1000000000 ,
b11000 -
b0011111111 /
b00110 2
#3
0'
#4
1'
b0011111111 ,
b11110 -
#5
0'
#6
1'
b00100 -
b1000000000 /
b11000 2
#7
0'
#8
1'
b1000000000 ,
b11100 -
b0011111111 /
b00110 2
#9
0'
#10
1'
b0011111111 ,
b00010 -
b1000000000 /
b11000 2
#11
0'
#12
1'
b1000000000 ,
b11010 -
b0011111111 /
b00110 2
#13
0'
#14
1'
b0011111111 ,
b00000 -
b1000000000 /
b11000 2
#15
0'
#16
1'
b1000000000 ,
b11000 -
b0011111111 /
b00110 2
#17
0'
#18
1'
b0011111111 ,
b11110 -
